%!PS-Adobe-2.0
%%Title: delta_FD_rel_error__vs__delta_x__loglog.ps
%%Creator: gnuplot 5.0 patchlevel 6
%%CreationDate: Thu Jan  4 22:14:12 2018
%%DocumentFonts: (atend)
%%BoundingBox: 50 50 554 770
%%Orientation: Landscape
%%Pages: (atend)
%%EndComments
%%BeginProlog
/gnudict 256 dict def
gnudict begin
%
% The following true/false flags may be edited by hand if desired.
% The unit line width and grayscale image gamma correction may also be changed.
%
/Color true def
/Blacktext false def
/Solid false def
/Dashlength 1 def
/Landscape true def
/Level1 false def
/Level3 false def
/Rounded false def
/ClipToBoundingBox false def
/SuppressPDFMark false def
/TransparentPatterns false def
/gnulinewidth 5.000 def
/userlinewidth gnulinewidth def
/Gamma 1.0 def
/BackgroundColor {-1.000 -1.000 -1.000} def
%
/vshift -65 def
/dl1 {
  10.0 Dashlength userlinewidth gnulinewidth div mul mul mul
  Rounded { currentlinewidth 0.75 mul sub dup 0 le { pop 0.01 } if } if
} def
/dl2 {
  10.0 Dashlength userlinewidth gnulinewidth div mul mul mul
  Rounded { currentlinewidth 0.75 mul add } if
} def
/hpt_ 31.5 def
/vpt_ 31.5 def
/hpt hpt_ def
/vpt vpt_ def
/doclip {
  ClipToBoundingBox {
    newpath 50 50 moveto 554 50 lineto 554 770 lineto 50 770 lineto closepath
    clip
  } if
} def
%
% Gnuplot Prolog Version 5.1 (Oct 2015)
%
%/SuppressPDFMark true def
%
/M {moveto} bind def
/L {lineto} bind def
/R {rmoveto} bind def
/V {rlineto} bind def
/N {newpath moveto} bind def
/Z {closepath} bind def
/C {setrgbcolor} bind def
/f {rlineto fill} bind def
/g {setgray} bind def
/Gshow {show} def   % May be redefined later in the file to support UTF-8
/vpt2 vpt 2 mul def
/hpt2 hpt 2 mul def
/Lshow {currentpoint stroke M 0 vshift R 
	Blacktext {gsave 0 setgray textshow grestore} {textshow} ifelse} def
/Rshow {currentpoint stroke M dup stringwidth pop neg vshift R
	Blacktext {gsave 0 setgray textshow grestore} {textshow} ifelse} def
/Cshow {currentpoint stroke M dup stringwidth pop -2 div vshift R 
	Blacktext {gsave 0 setgray textshow grestore} {textshow} ifelse} def
/UP {dup vpt_ mul /vpt exch def hpt_ mul /hpt exch def
  /hpt2 hpt 2 mul def /vpt2 vpt 2 mul def} def
/DL {Color {setrgbcolor Solid {pop []} if 0 setdash}
 {pop pop pop 0 setgray Solid {pop []} if 0 setdash} ifelse} def
/BL {stroke userlinewidth 2 mul setlinewidth
	Rounded {1 setlinejoin 1 setlinecap} if} def
/AL {stroke userlinewidth 2 div setlinewidth
	Rounded {1 setlinejoin 1 setlinecap} if} def
/UL {dup gnulinewidth mul /userlinewidth exch def
	dup 1 lt {pop 1} if 10 mul /udl exch def} def
/PL {stroke userlinewidth setlinewidth
	Rounded {1 setlinejoin 1 setlinecap} if} def
3.8 setmiterlimit
% Classic Line colors (version 5.0)
/LCw {1 1 1} def
/LCb {0 0 0} def
/LCa {0 0 0} def
/LC0 {1 0 0} def
/LC1 {0 1 0} def
/LC2 {0 0 1} def
/LC3 {1 0 1} def
/LC4 {0 1 1} def
/LC5 {1 1 0} def
/LC6 {0 0 0} def
/LC7 {1 0.3 0} def
/LC8 {0.5 0.5 0.5} def
% Default dash patterns (version 5.0)
/LTB {BL [] LCb DL} def
/LTw {PL [] 1 setgray} def
/LTb {PL [] LCb DL} def
/LTa {AL [1 udl mul 2 udl mul] 0 setdash LCa setrgbcolor} def
/LT0 {PL [] LC0 DL} def
/LT1 {PL [2 dl1 3 dl2] LC1 DL} def
/LT2 {PL [1 dl1 1.5 dl2] LC2 DL} def
/LT3 {PL [6 dl1 2 dl2 1 dl1 2 dl2] LC3 DL} def
/LT4 {PL [1 dl1 2 dl2 6 dl1 2 dl2 1 dl1 2 dl2] LC4 DL} def
/LT5 {PL [4 dl1 2 dl2] LC5 DL} def
/LT6 {PL [1.5 dl1 1.5 dl2 1.5 dl1 1.5 dl2 1.5 dl1 6 dl2] LC6 DL} def
/LT7 {PL [3 dl1 3 dl2 1 dl1 3 dl2] LC7 DL} def
/LT8 {PL [2 dl1 2 dl2 2 dl1 6 dl2] LC8 DL} def
/SL {[] 0 setdash} def
/Pnt {stroke [] 0 setdash gsave 1 setlinecap M 0 0 V stroke grestore} def
/Dia {stroke [] 0 setdash 2 copy vpt add M
  hpt neg vpt neg V hpt vpt neg V
  hpt vpt V hpt neg vpt V closepath stroke
  Pnt} def
/Pls {stroke [] 0 setdash vpt sub M 0 vpt2 V
  currentpoint stroke M
  hpt neg vpt neg R hpt2 0 V stroke
 } def
/Box {stroke [] 0 setdash 2 copy exch hpt sub exch vpt add M
  0 vpt2 neg V hpt2 0 V 0 vpt2 V
  hpt2 neg 0 V closepath stroke
  Pnt} def
/Crs {stroke [] 0 setdash exch hpt sub exch vpt add M
  hpt2 vpt2 neg V currentpoint stroke M
  hpt2 neg 0 R hpt2 vpt2 V stroke} def
/TriU {stroke [] 0 setdash 2 copy vpt 1.12 mul add M
  hpt neg vpt -1.62 mul V
  hpt 2 mul 0 V
  hpt neg vpt 1.62 mul V closepath stroke
  Pnt} def
/Star {2 copy Pls Crs} def
/BoxF {stroke [] 0 setdash exch hpt sub exch vpt add M
  0 vpt2 neg V hpt2 0 V 0 vpt2 V
  hpt2 neg 0 V closepath fill} def
/TriUF {stroke [] 0 setdash vpt 1.12 mul add M
  hpt neg vpt -1.62 mul V
  hpt 2 mul 0 V
  hpt neg vpt 1.62 mul V closepath fill} def
/TriD {stroke [] 0 setdash 2 copy vpt 1.12 mul sub M
  hpt neg vpt 1.62 mul V
  hpt 2 mul 0 V
  hpt neg vpt -1.62 mul V closepath stroke
  Pnt} def
/TriDF {stroke [] 0 setdash vpt 1.12 mul sub M
  hpt neg vpt 1.62 mul V
  hpt 2 mul 0 V
  hpt neg vpt -1.62 mul V closepath fill} def
/DiaF {stroke [] 0 setdash vpt add M
  hpt neg vpt neg V hpt vpt neg V
  hpt vpt V hpt neg vpt V closepath fill} def
/Pent {stroke [] 0 setdash 2 copy gsave
  translate 0 hpt M 4 {72 rotate 0 hpt L} repeat
  closepath stroke grestore Pnt} def
/PentF {stroke [] 0 setdash gsave
  translate 0 hpt M 4 {72 rotate 0 hpt L} repeat
  closepath fill grestore} def
/Circle {stroke [] 0 setdash 2 copy
  hpt 0 360 arc stroke Pnt} def
/CircleF {stroke [] 0 setdash hpt 0 360 arc fill} def
/C0 {BL [] 0 setdash 2 copy moveto vpt 90 450 arc} bind def
/C1 {BL [] 0 setdash 2 copy moveto
	2 copy vpt 0 90 arc closepath fill
	vpt 0 360 arc closepath} bind def
/C2 {BL [] 0 setdash 2 copy moveto
	2 copy vpt 90 180 arc closepath fill
	vpt 0 360 arc closepath} bind def
/C3 {BL [] 0 setdash 2 copy moveto
	2 copy vpt 0 180 arc closepath fill
	vpt 0 360 arc closepath} bind def
/C4 {BL [] 0 setdash 2 copy moveto
	2 copy vpt 180 270 arc closepath fill
	vpt 0 360 arc closepath} bind def
/C5 {BL [] 0 setdash 2 copy moveto
	2 copy vpt 0 90 arc
	2 copy moveto
	2 copy vpt 180 270 arc closepath fill
	vpt 0 360 arc} bind def
/C6 {BL [] 0 setdash 2 copy moveto
	2 copy vpt 90 270 arc closepath fill
	vpt 0 360 arc closepath} bind def
/C7 {BL [] 0 setdash 2 copy moveto
	2 copy vpt 0 270 arc closepath fill
	vpt 0 360 arc closepath} bind def
/C8 {BL [] 0 setdash 2 copy moveto
	2 copy vpt 270 360 arc closepath fill
	vpt 0 360 arc closepath} bind def
/C9 {BL [] 0 setdash 2 copy moveto
	2 copy vpt 270 450 arc closepath fill
	vpt 0 360 arc closepath} bind def
/C10 {BL [] 0 setdash 2 copy 2 copy moveto vpt 270 360 arc closepath fill
	2 copy moveto
	2 copy vpt 90 180 arc closepath fill
	vpt 0 360 arc closepath} bind def
/C11 {BL [] 0 setdash 2 copy moveto
	2 copy vpt 0 180 arc closepath fill
	2 copy moveto
	2 copy vpt 270 360 arc closepath fill
	vpt 0 360 arc closepath} bind def
/C12 {BL [] 0 setdash 2 copy moveto
	2 copy vpt 180 360 arc closepath fill
	vpt 0 360 arc closepath} bind def
/C13 {BL [] 0 setdash 2 copy moveto
	2 copy vpt 0 90 arc closepath fill
	2 copy moveto
	2 copy vpt 180 360 arc closepath fill
	vpt 0 360 arc closepath} bind def
/C14 {BL [] 0 setdash 2 copy moveto
	2 copy vpt 90 360 arc closepath fill
	vpt 0 360 arc} bind def
/C15 {BL [] 0 setdash 2 copy vpt 0 360 arc closepath fill
	vpt 0 360 arc closepath} bind def
/Rec {newpath 4 2 roll moveto 1 index 0 rlineto 0 exch rlineto
	neg 0 rlineto closepath} bind def
/Square {dup Rec} bind def
/Bsquare {vpt sub exch vpt sub exch vpt2 Square} bind def
/S0 {BL [] 0 setdash 2 copy moveto 0 vpt rlineto BL Bsquare} bind def
/S1 {BL [] 0 setdash 2 copy vpt Square fill Bsquare} bind def
/S2 {BL [] 0 setdash 2 copy exch vpt sub exch vpt Square fill Bsquare} bind def
/S3 {BL [] 0 setdash 2 copy exch vpt sub exch vpt2 vpt Rec fill Bsquare} bind def
/S4 {BL [] 0 setdash 2 copy exch vpt sub exch vpt sub vpt Square fill Bsquare} bind def
/S5 {BL [] 0 setdash 2 copy 2 copy vpt Square fill
	exch vpt sub exch vpt sub vpt Square fill Bsquare} bind def
/S6 {BL [] 0 setdash 2 copy exch vpt sub exch vpt sub vpt vpt2 Rec fill Bsquare} bind def
/S7 {BL [] 0 setdash 2 copy exch vpt sub exch vpt sub vpt vpt2 Rec fill
	2 copy vpt Square fill Bsquare} bind def
/S8 {BL [] 0 setdash 2 copy vpt sub vpt Square fill Bsquare} bind def
/S9 {BL [] 0 setdash 2 copy vpt sub vpt vpt2 Rec fill Bsquare} bind def
/S10 {BL [] 0 setdash 2 copy vpt sub vpt Square fill 2 copy exch vpt sub exch vpt Square fill
	Bsquare} bind def
/S11 {BL [] 0 setdash 2 copy vpt sub vpt Square fill 2 copy exch vpt sub exch vpt2 vpt Rec fill
	Bsquare} bind def
/S12 {BL [] 0 setdash 2 copy exch vpt sub exch vpt sub vpt2 vpt Rec fill Bsquare} bind def
/S13 {BL [] 0 setdash 2 copy exch vpt sub exch vpt sub vpt2 vpt Rec fill
	2 copy vpt Square fill Bsquare} bind def
/S14 {BL [] 0 setdash 2 copy exch vpt sub exch vpt sub vpt2 vpt Rec fill
	2 copy exch vpt sub exch vpt Square fill Bsquare} bind def
/S15 {BL [] 0 setdash 2 copy Bsquare fill Bsquare} bind def
/D0 {gsave translate 45 rotate 0 0 S0 stroke grestore} bind def
/D1 {gsave translate 45 rotate 0 0 S1 stroke grestore} bind def
/D2 {gsave translate 45 rotate 0 0 S2 stroke grestore} bind def
/D3 {gsave translate 45 rotate 0 0 S3 stroke grestore} bind def
/D4 {gsave translate 45 rotate 0 0 S4 stroke grestore} bind def
/D5 {gsave translate 45 rotate 0 0 S5 stroke grestore} bind def
/D6 {gsave translate 45 rotate 0 0 S6 stroke grestore} bind def
/D7 {gsave translate 45 rotate 0 0 S7 stroke grestore} bind def
/D8 {gsave translate 45 rotate 0 0 S8 stroke grestore} bind def
/D9 {gsave translate 45 rotate 0 0 S9 stroke grestore} bind def
/D10 {gsave translate 45 rotate 0 0 S10 stroke grestore} bind def
/D11 {gsave translate 45 rotate 0 0 S11 stroke grestore} bind def
/D12 {gsave translate 45 rotate 0 0 S12 stroke grestore} bind def
/D13 {gsave translate 45 rotate 0 0 S13 stroke grestore} bind def
/D14 {gsave translate 45 rotate 0 0 S14 stroke grestore} bind def
/D15 {gsave translate 45 rotate 0 0 S15 stroke grestore} bind def
/DiaE {stroke [] 0 setdash vpt add M
  hpt neg vpt neg V hpt vpt neg V
  hpt vpt V hpt neg vpt V closepath stroke} def
/BoxE {stroke [] 0 setdash exch hpt sub exch vpt add M
  0 vpt2 neg V hpt2 0 V 0 vpt2 V
  hpt2 neg 0 V closepath stroke} def
/TriUE {stroke [] 0 setdash vpt 1.12 mul add M
  hpt neg vpt -1.62 mul V
  hpt 2 mul 0 V
  hpt neg vpt 1.62 mul V closepath stroke} def
/TriDE {stroke [] 0 setdash vpt 1.12 mul sub M
  hpt neg vpt 1.62 mul V
  hpt 2 mul 0 V
  hpt neg vpt -1.62 mul V closepath stroke} def
/PentE {stroke [] 0 setdash gsave
  translate 0 hpt M 4 {72 rotate 0 hpt L} repeat
  closepath stroke grestore} def
/CircE {stroke [] 0 setdash 
  hpt 0 360 arc stroke} def
/Opaque {gsave closepath 1 setgray fill grestore 0 setgray closepath} def
/DiaW {stroke [] 0 setdash vpt add M
  hpt neg vpt neg V hpt vpt neg V
  hpt vpt V hpt neg vpt V Opaque stroke} def
/BoxW {stroke [] 0 setdash exch hpt sub exch vpt add M
  0 vpt2 neg V hpt2 0 V 0 vpt2 V
  hpt2 neg 0 V Opaque stroke} def
/TriUW {stroke [] 0 setdash vpt 1.12 mul add M
  hpt neg vpt -1.62 mul V
  hpt 2 mul 0 V
  hpt neg vpt 1.62 mul V Opaque stroke} def
/TriDW {stroke [] 0 setdash vpt 1.12 mul sub M
  hpt neg vpt 1.62 mul V
  hpt 2 mul 0 V
  hpt neg vpt -1.62 mul V Opaque stroke} def
/PentW {stroke [] 0 setdash gsave
  translate 0 hpt M 4 {72 rotate 0 hpt L} repeat
  Opaque stroke grestore} def
/CircW {stroke [] 0 setdash 
  hpt 0 360 arc Opaque stroke} def
/BoxFill {gsave Rec 1 setgray fill grestore} def
/Density {
  /Fillden exch def
  currentrgbcolor
  /ColB exch def /ColG exch def /ColR exch def
  /ColR ColR Fillden mul Fillden sub 1 add def
  /ColG ColG Fillden mul Fillden sub 1 add def
  /ColB ColB Fillden mul Fillden sub 1 add def
  ColR ColG ColB setrgbcolor} def
/BoxColFill {gsave Rec PolyFill} def
/PolyFill {gsave Density fill grestore grestore} def
/h {rlineto rlineto rlineto gsave closepath fill grestore} bind def
%
% PostScript Level 1 Pattern Fill routine for rectangles
% Usage: x y w h s a XX PatternFill
%	x,y = lower left corner of box to be filled
%	w,h = width and height of box
%	  a = angle in degrees between lines and x-axis
%	 XX = 0/1 for no/yes cross-hatch
%
/PatternFill {gsave /PFa [ 9 2 roll ] def
  PFa 0 get PFa 2 get 2 div add PFa 1 get PFa 3 get 2 div add translate
  PFa 2 get -2 div PFa 3 get -2 div PFa 2 get PFa 3 get Rec
  TransparentPatterns {} {gsave 1 setgray fill grestore} ifelse
  clip
  currentlinewidth 0.5 mul setlinewidth
  /PFs PFa 2 get dup mul PFa 3 get dup mul add sqrt def
  0 0 M PFa 5 get rotate PFs -2 div dup translate
  0 1 PFs PFa 4 get div 1 add floor cvi
	{PFa 4 get mul 0 M 0 PFs V} for
  0 PFa 6 get ne {
	0 1 PFs PFa 4 get div 1 add floor cvi
	{PFa 4 get mul 0 2 1 roll M PFs 0 V} for
 } if
  stroke grestore} def
%
/languagelevel where
 {pop languagelevel} {1} ifelse
dup 2 lt
	{/InterpretLevel1 true def
	 /InterpretLevel3 false def}
	{/InterpretLevel1 Level1 def
	 2 gt
	    {/InterpretLevel3 Level3 def}
	    {/InterpretLevel3 false def}
	 ifelse }
 ifelse
%
% PostScript level 2 pattern fill definitions
%
/Level2PatternFill {
/Tile8x8 {/PaintType 2 /PatternType 1 /TilingType 1 /BBox [0 0 8 8] /XStep 8 /YStep 8}
	bind def
/KeepColor {currentrgbcolor [/Pattern /DeviceRGB] setcolorspace} bind def
<< Tile8x8
 /PaintProc {0.5 setlinewidth pop 0 0 M 8 8 L 0 8 M 8 0 L stroke} 
>> matrix makepattern
/Pat1 exch def
<< Tile8x8
 /PaintProc {0.5 setlinewidth pop 0 0 M 8 8 L 0 8 M 8 0 L stroke
	0 4 M 4 8 L 8 4 L 4 0 L 0 4 L stroke}
>> matrix makepattern
/Pat2 exch def
<< Tile8x8
 /PaintProc {0.5 setlinewidth pop 0 0 M 0 8 L
	8 8 L 8 0 L 0 0 L fill}
>> matrix makepattern
/Pat3 exch def
<< Tile8x8
 /PaintProc {0.5 setlinewidth pop -4 8 M 8 -4 L
	0 12 M 12 0 L stroke}
>> matrix makepattern
/Pat4 exch def
<< Tile8x8
 /PaintProc {0.5 setlinewidth pop -4 0 M 8 12 L
	0 -4 M 12 8 L stroke}
>> matrix makepattern
/Pat5 exch def
<< Tile8x8
 /PaintProc {0.5 setlinewidth pop -2 8 M 4 -4 L
	0 12 M 8 -4 L 4 12 M 10 0 L stroke}
>> matrix makepattern
/Pat6 exch def
<< Tile8x8
 /PaintProc {0.5 setlinewidth pop -2 0 M 4 12 L
	0 -4 M 8 12 L 4 -4 M 10 8 L stroke}
>> matrix makepattern
/Pat7 exch def
<< Tile8x8
 /PaintProc {0.5 setlinewidth pop 8 -2 M -4 4 L
	12 0 M -4 8 L 12 4 M 0 10 L stroke}
>> matrix makepattern
/Pat8 exch def
<< Tile8x8
 /PaintProc {0.5 setlinewidth pop 0 -2 M 12 4 L
	-4 0 M 12 8 L -4 4 M 8 10 L stroke}
>> matrix makepattern
/Pat9 exch def
/Pattern1 {PatternBgnd KeepColor Pat1 setpattern} bind def
/Pattern2 {PatternBgnd KeepColor Pat2 setpattern} bind def
/Pattern3 {PatternBgnd KeepColor Pat3 setpattern} bind def
/Pattern4 {PatternBgnd KeepColor Landscape {Pat5} {Pat4} ifelse setpattern} bind def
/Pattern5 {PatternBgnd KeepColor Landscape {Pat4} {Pat5} ifelse setpattern} bind def
/Pattern6 {PatternBgnd KeepColor Landscape {Pat9} {Pat6} ifelse setpattern} bind def
/Pattern7 {PatternBgnd KeepColor Landscape {Pat8} {Pat7} ifelse setpattern} bind def
} def
%
%
%End of PostScript Level 2 code
%
/PatternBgnd {
  TransparentPatterns {} {gsave 1 setgray fill grestore} ifelse
} def
%
% Substitute for Level 2 pattern fill codes with
% grayscale if Level 2 support is not selected.
%
/Level1PatternFill {
/Pattern1 {0.250 Density} bind def
/Pattern2 {0.500 Density} bind def
/Pattern3 {0.750 Density} bind def
/Pattern4 {0.125 Density} bind def
/Pattern5 {0.375 Density} bind def
/Pattern6 {0.625 Density} bind def
/Pattern7 {0.875 Density} bind def
} def
%
% Now test for support of Level 2 code
%
Level1 {Level1PatternFill} {Level2PatternFill} ifelse
%
/Symbol-Oblique /Symbol findfont [1 0 .167 1 0 0] makefont
dup length dict begin {1 index /FID eq {pop pop} {def} ifelse} forall
currentdict end definefont pop
%
/MFshow {
   { dup 5 get 3 ge
     { 5 get 3 eq {gsave} {grestore} ifelse }
     {dup dup 0 get findfont exch 1 get scalefont setfont
     [ currentpoint ] exch dup 2 get 0 exch R dup 5 get 2 ne {dup dup 6
     get exch 4 get {textshow} {stringwidth pop 0 R} ifelse }if dup 5 get 0 eq
     {dup 3 get {2 get neg 0 exch R pop} {pop aload pop M} ifelse} {dup 5
     get 1 eq {dup 2 get exch dup 3 get exch 6 get stringwidth pop -2 div
     dup 0 R} {dup 6 get stringwidth pop -2 div 0 R 6 get
     textshow 2 index {aload pop M neg 3 -1 roll neg R pop pop} {pop pop pop
     pop aload pop M} ifelse }ifelse }ifelse }
     ifelse }
   forall} def
/Gswidth {dup type /stringtype eq {stringwidth} {pop (n) stringwidth} ifelse} def
/MFwidth {0 exch { dup 5 get 3 ge { 5 get 3 eq { 0 } { pop } ifelse }
 {dup 3 get{dup dup 0 get findfont exch 1 get scalefont setfont
     6 get Gswidth pop add} {pop} ifelse} ifelse} forall} def
/MLshow { currentpoint stroke M
  0 exch R
  Blacktext {gsave 0 setgray MFshow grestore} {MFshow} ifelse } bind def
/MRshow { currentpoint stroke M
  exch dup MFwidth neg 3 -1 roll R
  Blacktext {gsave 0 setgray MFshow grestore} {MFshow} ifelse } bind def
/MCshow { currentpoint stroke M
  exch dup MFwidth -2 div 3 -1 roll R
  Blacktext {gsave 0 setgray MFshow grestore} {MFshow} ifelse } bind def
/XYsave    { [( ) 1 2 true false 3 ()] } bind def
/XYrestore { [( ) 1 2 true false 4 ()] } bind def
Level1 SuppressPDFMark or 
{} {
/SDict 10 dict def
systemdict /pdfmark known not {
  userdict /pdfmark systemdict /cleartomark get put
} if
SDict begin [
  /Title (delta_FD_rel_error__vs__delta_x__loglog.ps)
  /Subject (gnuplot plot)
  /Creator (gnuplot 5.0 patchlevel 6)
  /Author (zetienne)
%  /Producer (gnuplot)
%  /Keywords ()
  /CreationDate (Thu Jan  4 22:14:12 2018)
  /DOCINFO pdfmark
end
} ifelse
%
% Support for boxed text - Ethan A Merritt May 2005
%
/InitTextBox { userdict /TBy2 3 -1 roll put userdict /TBx2 3 -1 roll put
           userdict /TBy1 3 -1 roll put userdict /TBx1 3 -1 roll put
	   /Boxing true def } def
/ExtendTextBox { Boxing
    { gsave dup false charpath pathbbox
      dup TBy2 gt {userdict /TBy2 3 -1 roll put} {pop} ifelse
      dup TBx2 gt {userdict /TBx2 3 -1 roll put} {pop} ifelse
      dup TBy1 lt {userdict /TBy1 3 -1 roll put} {pop} ifelse
      dup TBx1 lt {userdict /TBx1 3 -1 roll put} {pop} ifelse
      grestore } if } def
/PopTextBox { newpath TBx1 TBxmargin sub TBy1 TBymargin sub M
               TBx1 TBxmargin sub TBy2 TBymargin add L
	       TBx2 TBxmargin add TBy2 TBymargin add L
	       TBx2 TBxmargin add TBy1 TBymargin sub L closepath } def
/DrawTextBox { PopTextBox stroke /Boxing false def} def
/FillTextBox { gsave PopTextBox 1 1 1 setrgbcolor fill grestore /Boxing false def} def
0 0 0 0 InitTextBox
/TBxmargin 20 def
/TBymargin 20 def
/Boxing false def
/textshow { ExtendTextBox Gshow } def
%
% redundant definitions for compatibility with prologue.ps older than 5.0.2
/LTB {BL [] LCb DL} def
/LTb {PL [] LCb DL} def
end
%%EndProlog
%%Page: 1 1
gnudict begin
gsave
doclip
50 50 translate
0.100 0.100 scale
90 rotate
0 -5040 translate
0 setgray
newpath
(Helvetica) findfont 196 scalefont setfont
BackgroundColor 0 lt 3 1 roll 0 lt exch 0 lt or or not {gsave BackgroundColor C clippath fill grestore} if
1.000 UL
LTb
LCb setrgbcolor
839 1129 M
63 0 V
5946 0 R
-63 0 V
stroke
722 1129 M
[ [(Helvetica) 196.0 0.0 true true 0 (-2)]
] -65.3 MRshow
1.000 UL
LTb
LCb setrgbcolor
839 1742 M
63 0 V
5946 0 R
-63 0 V
stroke
722 1742 M
[ [(Helvetica) 196.0 0.0 true true 0 ( 0)]
] -65.3 MRshow
1.000 UL
LTb
LCb setrgbcolor
839 2355 M
63 0 V
5946 0 R
-63 0 V
stroke
722 2355 M
[ [(Helvetica) 196.0 0.0 true true 0 ( 2)]
] -65.3 MRshow
1.000 UL
LTb
LCb setrgbcolor
839 2967 M
63 0 V
5946 0 R
-63 0 V
stroke
722 2967 M
[ [(Helvetica) 196.0 0.0 true true 0 ( 4)]
] -65.3 MRshow
1.000 UL
LTb
LCb setrgbcolor
839 3580 M
63 0 V
5946 0 R
-63 0 V
stroke
722 3580 M
[ [(Helvetica) 196.0 0.0 true true 0 ( 6)]
] -65.3 MRshow
1.000 UL
LTb
LCb setrgbcolor
839 4192 M
63 0 V
5946 0 R
-63 0 V
stroke
722 4192 M
[ [(Helvetica) 196.0 0.0 true true 0 ( 8)]
] -65.3 MRshow
1.000 UL
LTb
LCb setrgbcolor
839 4805 M
63 0 V
5946 0 R
-63 0 V
stroke
722 4805 M
[ [(Helvetica) 196.0 0.0 true true 0 ( 10)]
] -65.3 MRshow
1.000 UL
LTb
LCb setrgbcolor
839 823 M
0 63 V
0 3919 R
0 -63 V
stroke
839 627 M
[ [(Helvetica) 196.0 0.0 true true 0 (-7)]
] -65.3 MCshow
1.000 UL
LTb
LCb setrgbcolor
1590 823 M
0 63 V
0 3919 R
0 -63 V
stroke
1590 627 M
[ [(Helvetica) 196.0 0.0 true true 0 (-6)]
] -65.3 MCshow
1.000 UL
LTb
LCb setrgbcolor
2341 823 M
0 63 V
0 3919 R
0 -63 V
stroke
2341 627 M
[ [(Helvetica) 196.0 0.0 true true 0 (-5)]
] -65.3 MCshow
1.000 UL
LTb
LCb setrgbcolor
3092 823 M
0 63 V
0 3919 R
0 -63 V
stroke
3092 627 M
[ [(Helvetica) 196.0 0.0 true true 0 (-4)]
] -65.3 MCshow
1.000 UL
LTb
LCb setrgbcolor
3844 823 M
0 63 V
0 3919 R
0 -63 V
stroke
3844 627 M
[ [(Helvetica) 196.0 0.0 true true 0 (-3)]
] -65.3 MCshow
1.000 UL
LTb
LCb setrgbcolor
4595 823 M
0 63 V
0 3919 R
0 -63 V
stroke
4595 627 M
[ [(Helvetica) 196.0 0.0 true true 0 (-2)]
] -65.3 MCshow
1.000 UL
LTb
LCb setrgbcolor
5346 823 M
0 63 V
0 3919 R
0 -63 V
stroke
5346 627 M
[ [(Helvetica) 196.0 0.0 true true 0 (-1)]
] -65.3 MCshow
1.000 UL
LTb
LCb setrgbcolor
6097 823 M
0 63 V
0 3919 R
0 -63 V
stroke
6097 627 M
[ [(Helvetica) 196.0 0.0 true true 0 ( 0)]
] -65.3 MCshow
1.000 UL
LTb
LCb setrgbcolor
6848 823 M
0 63 V
0 3919 R
0 -63 V
stroke
6848 627 M
[ [(Helvetica) 196.0 0.0 true true 0 ( 1)]
] -65.3 MCshow
1.000 UL
LTb
LCb setrgbcolor
1.000 UL
LTB
LCb setrgbcolor
839 4805 N
839 823 L
6009 0 V
0 3982 V
-6009 0 V
Z stroke
1.000 UP
1.000 UL
LTb
LCb setrgbcolor
LCb setrgbcolor
156 2814 M
currentpoint gsave translate -270 rotate 0 0 moveto
[ [(Symbol) 196.0 0.0 true true 0 (D)]
[(Helvetica) 196.0 0.0 true true 0 ( log)]
[(Helvetica) 156.8 -58.8 true true 0 (10)]
[(Helvetica) 196.0 0.0 true true 0 ( E)]
[(Helvetica) 156.8 -58.8 true true 0 (rel)]
] -45.7 MCshow
grestore
LTb
LCb setrgbcolor
3843 333 M
[ [(Helvetica) 196.0 0.0 true true 0 (log)]
[(Helvetica) 156.8 -58.8 true true 0 (10)]
[(Helvetica) 196.0 0.0 true true 0 ( )]
[(Symbol) 196.0 0.0 true true 0 (D)]
[(Helvetica) 196.0 0.0 true true 0 (x)]
] -45.7 MCshow
LTb
% Begin plot #1
3.000 UL
LTb
0.58 0.00 0.83 C LCb setrgbcolor
5966 4644 M
[ [(Helvetica) 196.0 0.0 true true 0 (log. factor by which E)]
[(Helvetica) 156.8 -58.8 true true 0 (rel)]
[(Helvetica) 196.0 0.0 true true 0 ( drops from: 2)]
[(Helvetica) 156.8 98.0 true true 0 (nd)]
[(Helvetica) 196.0 0.0 true true 0 ( to 4)]
[(Helvetica) 156.8 98.0 true true 0 (th)]
[(Helvetica) 196.0 0.0 true true 0 ( FD orders)]
] -65.3 MRshow
3.000 UL
LTb
0.58 0.00 0.83 C 6083 4644 M
531 0 V
1364 1848 M
19 -106 V
19 -123 V
18 151 V
19 304 V
19 -480 V
19 -123 V
18 146 V
19 -141 V
19 373 V
19 -209 V
19 8 V
18 94 V
19 220 V
19 -297 V
19 154 V
18 112 V
19 166 V
19 -454 V
19 99 V
19 454 V
18 -247 V
19 -194 V
19 -77 V
19 123 V
18 182 V
19 77 V
19 -85 V
19 249 V
19 -86 V
18 -2 V
19 -159 V
19 59 V
19 49 V
18 -51 V
19 430 V
19 -36 V
19 -298 V
19 483 V
18 -439 V
19 166 V
19 29 V
19 -92 V
18 14 V
19 171 V
19 13 V
19 -9 V
19 -146 V
18 227 V
19 498 V
19 -325 V
19 -81 V
18 -63 V
19 -18 V
19 56 V
19 73 V
19 -63 V
18 52 V
19 -17 V
19 30 V
19 449 V
18 -401 V
19 7 V
19 156 V
19 -78 V
19 84 V
18 37 V
19 56 V
19 -151 V
19 140 V
18 97 V
19 -107 V
19 87 V
19 -6 V
19 153 V
18 -100 V
19 -58 V
19 155 V
19 289 V
18 -475 V
19 210 V
19 -2 V
19 121 V
19 -126 V
18 4 V
19 63 V
19 4 V
19 54 V
18 30 V
19 333 V
19 -370 V
19 138 V
19 60 V
18 177 V
19 -281 V
19 368 V
19 -104 V
18 -79 V
19 -89 V
19 140 V
19 -130 V
19 111 V
18 71 V
stroke 3279 3726 M
19 10 V
19 -2 V
19 -57 V
18 425 V
19 -306 V
19 -67 V
19 131 V
19 66 V
18 -17 V
19 210 V
19 -80 V
19 -122 V
18 -17 V
19 134 V
19 -51 V
19 9 V
19 92 V
18 -196 V
19 62 V
19 -60 V
19 -16 V
19 25 V
18 0 V
19 -38 V
19 -17 V
19 -17 V
18 -15 V
19 -17 V
19 -16 V
19 -15 V
19 -17 V
18 -12 V
19 -15 V
19 -16 V
19 -15 V
18 -16 V
19 -15 V
19 -16 V
19 -15 V
19 -15 V
18 -16 V
19 -15 V
19 -15 V
19 -16 V
18 -15 V
19 -15 V
19 -15 V
19 -16 V
19 -15 V
18 -15 V
19 -16 V
19 -15 V
19 -15 V
18 -16 V
19 -15 V
19 -15 V
19 -16 V
19 -15 V
18 -15 V
19 -15 V
19 -16 V
19 -15 V
18 -15 V
19 -16 V
19 -15 V
19 -15 V
19 -16 V
18 -15 V
19 -15 V
19 -15 V
19 -16 V
18 -15 V
19 -15 V
19 -16 V
19 -15 V
19 -15 V
18 -16 V
19 -15 V
19 -15 V
19 -15 V
18 -16 V
19 -15 V
19 -15 V
19 -15 V
19 -16 V
18 -15 V
19 -15 V
19 -16 V
19 -15 V
18 -15 V
19 -15 V
19 -16 V
19 -15 V
19 -15 V
18 -15 V
19 -16 V
19 -15 V
19 -15 V
18 -15 V
19 -16 V
19 -15 V
19 -15 V
19 -15 V
18 -15 V
stroke 5232 2634 M
19 -16 V
19 -15 V
19 -15 V
18 -15 V
19 -15 V
19 -15 V
19 -16 V
19 -15 V
18 -15 V
19 -15 V
19 -15 V
19 -15 V
18 -16 V
19 -15 V
19 -15 V
19 -15 V
19 -15 V
18 -15 V
19 -15 V
19 -15 V
19 -15 V
18 -15 V
19 -16 V
19 -15 V
19 -15 V
19 -15 V
18 -15 V
19 -15 V
19 -15 V
19 -16 V
18 -15 V
19 -15 V
19 -15 V
19 -16 V
19 -15 V
18 -16 V
19 -15 V
19 -16 V
19 -16 V
18 -15 V
19 -16 V
19 -17 V
19 -16 V
19 -17 V
18 -17 V
19 -17 V
19 -18 V
19 -18 V
18 -19 V
19 -19 V
19 -21 V
19 -21 V
19 -23 V
18 -24 V
19 -27 V
19 -29 V
19 -34 V
18 -40 V
19 -50 V
19 -73 V
19 -53 V
19 13 V
18 13 V
19 59 V
19 40 V
19 28 V
18 21 V
19 17 V
19 14 V
19 11 V
19 10 V
18 9 V
19 7 V
19 7 V
19 5 V
18 6 V
19 5 V
19 4 V
19 4 V
19 5 V
18 3 V
19 4 V
% End plot #1
% Begin plot #2
stroke
LTb
0.00 0.62 0.45 C LCb setrgbcolor
5966 4448 M
[ [(Helvetica) 196.0 0.0 true true 0 (4)]
[(Helvetica) 156.8 98.0 true true 0 (th)]
[(Helvetica) 196.0 0.0 true true 0 ( to 6)]
[(Helvetica) 156.8 98.0 true true 0 (th)]
[(Helvetica) 196.0 0.0 true true 0 ( FD orders)]
] -84.9 MRshow
3.000 UL
LTb
0.00 0.62 0.45 C 6083 4448 M
531 0 V
1364 1432 M
19 236 V
19 532 V
18 -337 V
19 -298 V
19 28 V
19 474 V
18 -370 V
19 87 V
19 -166 V
19 120 V
19 37 V
18 -59 V
19 -77 V
19 118 V
19 -59 V
18 -380 V
19 89 V
19 302 V
19 353 V
19 -824 V
18 231 V
19 587 V
19 -319 V
19 16 V
18 -158 V
19 174 V
19 -56 V
19 -288 V
19 347 V
18 124 V
19 -143 V
19 -34 V
19 169 V
18 86 V
19 -461 V
19 187 V
19 119 V
19 -275 V
18 300 V
19 98 V
19 -267 V
19 87 V
18 202 V
19 -372 V
19 -1 V
19 243 V
19 -62 V
18 -104 V
19 -418 V
19 314 V
19 23 V
18 49 V
19 -34 V
19 38 V
19 -72 V
19 200 V
18 70 V
19 -80 V
19 26 V
19 -42 V
18 -11 V
19 -23 V
19 -102 V
19 219 V
19 -236 V
18 139 V
19 -196 V
19 418 V
19 -130 V
18 -183 V
19 56 V
19 -91 V
19 140 V
19 -244 V
18 196 V
19 315 V
19 -504 V
19 -89 V
18 373 V
19 -141 V
19 211 V
19 -166 V
19 356 V
18 -323 V
19 -5 V
19 -31 V
19 59 V
18 -167 V
19 -196 V
19 508 V
19 124 V
19 -252 V
18 -204 V
19 492 V
19 -658 V
19 366 V
18 1 V
19 102 V
19 -281 V
19 476 V
19 -374 V
18 -9 V
stroke 3279 1677 M
19 441 V
19 -417 V
19 377 V
18 -534 V
19 198 V
19 51 V
19 23 V
19 -241 V
18 161 V
19 -253 V
19 125 V
19 202 V
18 204 V
19 -200 V
19 -158 V
19 469 V
19 -416 V
18 170 V
19 133 V
19 -76 V
19 -34 V
19 17 V
18 111 V
19 117 V
19 -62 V
19 110 V
18 125 V
19 -117 V
19 -18 V
19 421 V
19 -203 V
18 -35 V
19 58 V
19 373 V
19 -196 V
18 348 V
19 -427 V
19 279 V
19 -237 V
19 323 V
18 123 V
19 140 V
19 -395 V
19 396 V
18 -242 V
19 -9 V
19 119 V
19 150 V
19 25 V
18 -19 V
19 152 V
19 -133 V
19 333 V
18 -133 V
19 -205 V
19 85 V
19 -45 V
19 14 V
18 -18 V
19 -48 V
19 -1 V
19 -17 V
18 -13 V
19 -10 V
19 -21 V
19 -12 V
19 -15 V
18 -14 V
19 -15 V
19 -17 V
19 -15 V
18 -15 V
19 -15 V
19 -16 V
19 -15 V
19 -15 V
18 -15 V
19 -16 V
19 -15 V
19 -15 V
18 -16 V
19 -15 V
19 -15 V
19 -15 V
19 -16 V
18 -15 V
19 -15 V
19 -15 V
19 -16 V
18 -15 V
19 -15 V
19 -16 V
19 -15 V
19 -15 V
18 -15 V
19 -16 V
19 -15 V
19 -15 V
18 -15 V
19 -16 V
19 -15 V
19 -15 V
19 -15 V
18 -15 V
stroke 5232 2526 M
19 -16 V
19 -15 V
19 -15 V
18 -15 V
19 -16 V
19 -15 V
19 -15 V
19 -15 V
18 -15 V
19 -16 V
19 -15 V
19 -15 V
18 -15 V
19 -15 V
19 -16 V
19 -15 V
19 -15 V
18 -15 V
19 -16 V
19 -15 V
19 -15 V
18 -16 V
19 -15 V
19 -15 V
19 -16 V
19 -15 V
18 -16 V
19 -16 V
19 -15 V
19 -16 V
18 -16 V
19 -16 V
19 -16 V
19 -17 V
19 -16 V
18 -17 V
19 -17 V
19 -17 V
19 -18 V
18 -18 V
19 -19 V
19 -19 V
19 -20 V
19 -21 V
18 -22 V
19 -23 V
19 -25 V
19 -27 V
18 -30 V
19 -33 V
19 -40 V
19 -50 V
19 -67 V
18 -113 V
19 -7 V
19 43 V
19 47 V
18 54 V
19 64 V
19 85 V
19 67 V
19 0 V
18 0 V
19 -17 V
19 -6 V
19 -1 V
18 0 V
19 1 V
19 2 V
19 2 V
19 2 V
18 2 V
19 2 V
19 1 V
19 2 V
18 2 V
19 1 V
19 1 V
19 2 V
19 1 V
18 1 V
19 2 V
% End plot #2
% Begin plot #3
stroke
LTb
0.34 0.71 0.91 C LCb setrgbcolor
5966 4252 M
[ [(Helvetica) 196.0 0.0 true true 0 (6)]
[(Helvetica) 156.8 98.0 true true 0 (th)]
[(Helvetica) 196.0 0.0 true true 0 ( to 8)]
[(Helvetica) 156.8 98.0 true true 0 (th)]
[(Helvetica) 196.0 0.0 true true 0 ( FD orders)]
] -84.9 MRshow
3.000 UL
LTb
0.34 0.71 0.91 C 6083 4252 M
531 0 V
1364 1917 M
19 -217 V
19 -441 V
18 386 V
19 -235 V
19 439 V
19 -374 V
18 436 V
19 -347 V
19 366 V
19 -170 V
19 56 V
18 -51 V
19 337 V
19 -541 V
19 335 V
18 -144 V
19 150 V
19 257 V
19 -449 V
19 75 V
18 -41 V
19 456 V
19 -416 V
19 -58 V
18 109 V
19 -253 V
19 280 V
19 -61 V
19 -262 V
18 594 V
19 -406 V
19 69 V
19 -121 V
18 595 V
19 -680 V
19 90 V
19 -46 V
19 -88 V
18 99 V
19 145 V
19 -133 V
19 73 V
18 -81 V
19 63 V
19 136 V
19 -138 V
19 5 V
18 -57 V
19 -9 V
19 711 V
19 -606 V
18 28 V
19 81 V
19 -221 V
19 161 V
19 80 V
18 -383 V
19 525 V
19 -331 V
19 -364 V
18 513 V
19 -188 V
19 95 V
19 79 V
19 90 V
18 -120 V
19 35 V
19 -62 V
19 -180 V
18 478 V
19 -300 V
19 -64 V
19 -9 V
19 416 V
18 -33 V
19 -606 V
19 288 V
19 -131 V
18 21 V
19 175 V
19 10 V
19 35 V
19 -560 V
18 527 V
19 -159 V
19 482 V
19 -402 V
18 13 V
19 -151 V
19 200 V
19 -279 V
19 96 V
18 -55 V
19 301 V
19 -15 V
19 -339 V
18 66 V
19 38 V
19 267 V
19 -465 V
19 421 V
18 -53 V
stroke 3279 1805 M
19 -414 V
19 466 V
19 -127 V
18 -41 V
19 73 V
19 35 V
19 -246 V
19 385 V
18 -180 V
19 -20 V
19 99 V
19 -35 V
18 -200 V
19 133 V
19 159 V
19 -560 V
19 448 V
18 7 V
19 270 V
19 -315 V
19 30 V
19 32 V
18 -137 V
19 -14 V
19 132 V
19 -109 V
18 2 V
19 52 V
19 346 V
19 -610 V
19 242 V
18 21 V
19 257 V
19 -534 V
19 490 V
18 -371 V
19 296 V
19 -354 V
19 281 V
19 -300 V
18 42 V
19 -23 V
19 399 V
19 -462 V
18 309 V
19 -16 V
19 71 V
19 -271 V
19 -17 V
18 75 V
19 196 V
19 192 V
19 -588 V
18 109 V
19 474 V
19 -295 V
19 340 V
19 150 V
18 -266 V
19 272 V
19 -186 V
19 203 V
18 -99 V
19 227 V
19 63 V
19 -13 V
19 337 V
18 -175 V
19 177 V
19 -147 V
19 253 V
18 -29 V
19 -19 V
19 52 V
19 -47 V
19 -45 V
18 108 V
19 -32 V
19 8 V
19 -4 V
18 -13 V
19 -30 V
19 -2 V
19 -17 V
19 -16 V
18 -16 V
19 -15 V
19 -15 V
19 -15 V
18 -16 V
19 -15 V
19 -15 V
19 -15 V
19 -16 V
18 -15 V
19 -15 V
19 -15 V
19 -16 V
18 -15 V
19 -15 V
19 -15 V
19 -16 V
19 -15 V
18 -15 V
stroke 5232 2449 M
19 -16 V
19 -15 V
19 -15 V
18 -15 V
19 -16 V
19 -15 V
19 -15 V
19 -15 V
18 -16 V
19 -15 V
19 -15 V
19 -16 V
18 -15 V
19 -15 V
19 -16 V
19 -15 V
19 -16 V
18 -15 V
19 -16 V
19 -15 V
19 -16 V
18 -16 V
19 -16 V
19 -16 V
19 -16 V
19 -16 V
18 -16 V
19 -16 V
19 -17 V
19 -17 V
18 -17 V
19 -18 V
19 -18 V
19 -18 V
19 -19 V
18 -19 V
19 -20 V
19 -21 V
19 -22 V
18 -24 V
19 -25 V
19 -28 V
19 -31 V
19 -36 V
18 -43 V
19 -56 V
19 -86 V
19 -229 V
18 156 V
19 106 V
19 58 V
19 42 V
19 40 V
18 65 V
19 25 V
19 0 V
19 0 V
18 0 V
19 0 V
19 0 V
19 0 V
19 0 V
18 0 V
19 -6 V
19 -3 V
19 -1 V
18 0 V
19 0 V
19 0 V
19 1 V
19 1 V
18 1 V
19 0 V
19 1 V
19 1 V
18 1 V
19 1 V
19 0 V
19 1 V
19 1 V
18 0 V
19 1 V
% End plot #3
% Begin plot #4
stroke
LTb
0.90 0.62 0.00 C LCb setrgbcolor
5966 4056 M
[ [(Helvetica) 196.0 0.0 true true 0 (8)]
[(Helvetica) 156.8 98.0 true true 0 (th)]
[(Helvetica) 196.0 0.0 true true 0 ( to 10)]
[(Helvetica) 156.8 98.0 true true 0 (th)]
[(Helvetica) 196.0 0.0 true true 0 ( FD orders)]
] -84.9 MRshow
3.000 UL
LTb
0.90 0.62 0.00 C 6083 4056 M
531 0 V
1364 1681 M
19 62 V
19 58 V
18 -173 V
19 299 V
19 -311 V
19 68 V
18 -37 V
19 61 V
19 33 V
19 159 V
19 -318 V
18 67 V
19 -554 V
19 706 V
19 -285 V
18 441 V
19 -399 V
19 -219 V
19 151 V
19 245 V
18 -8 V
19 -794 V
19 729 V
19 210 V
18 -200 V
19 160 V
19 -283 V
19 84 V
19 281 V
18 -764 V
19 668 V
19 -205 V
19 7 V
18 -446 V
19 578 V
19 -193 V
19 159 V
19 1009 V
18 -804 V
19 -549 V
19 348 V
19 90 V
18 -72 V
19 55 V
19 -285 V
19 247 V
19 560 V
18 -427 V
19 -254 V
19 -538 V
19 526 V
18 61 V
19 -59 V
19 139 V
19 -135 V
19 -23 V
18 190 V
19 -389 V
19 335 V
19 -60 V
18 -106 V
19 335 V
19 -115 V
19 53 V
19 105 V
18 -461 V
19 342 V
19 -342 V
19 199 V
18 -241 V
19 522 V
19 -185 V
19 51 V
19 -261 V
18 -40 V
19 179 V
19 134 V
19 52 V
18 -133 V
19 -32 V
19 -298 V
19 355 V
19 -32 V
18 -131 V
19 87 V
19 -388 V
19 707 V
18 -193 V
19 -130 V
19 -222 V
19 262 V
19 283 V
18 -140 V
19 -486 V
19 231 V
19 388 V
18 -127 V
19 -205 V
19 -87 V
19 402 V
19 -417 V
18 121 V
stroke 3279 1719 M
19 135 V
19 -67 V
19 -344 V
18 109 V
19 202 V
19 -34 V
19 43 V
19 -210 V
18 622 V
19 -458 V
19 15 V
19 43 V
18 -115 V
19 -54 V
19 30 V
19 188 V
19 10 V
18 -219 V
19 -387 V
19 548 V
19 -31 V
19 -101 V
18 92 V
19 57 V
19 15 V
19 -57 V
18 -173 V
19 169 V
19 -360 V
19 426 V
19 -31 V
18 4 V
19 -190 V
19 98 V
19 -272 V
18 295 V
19 493 V
19 -474 V
19 57 V
19 -46 V
18 -139 V
19 -37 V
19 -87 V
19 583 V
18 -391 V
19 538 V
19 -179 V
19 -360 V
19 115 V
18 66 V
19 166 V
19 -532 V
19 209 V
18 504 V
19 -585 V
19 149 V
19 -241 V
19 62 V
18 248 V
19 -297 V
19 224 V
19 98 V
18 161 V
19 -279 V
19 -215 V
19 73 V
19 98 V
18 -66 V
19 -99 V
19 191 V
19 34 V
18 185 V
19 -179 V
19 -44 V
19 -1 V
19 114 V
18 -9 V
19 128 V
19 298 V
19 -237 V
18 72 V
19 -5 V
19 128 V
19 404 V
19 -292 V
18 256 V
19 7 V
19 -103 V
19 125 V
18 -12 V
19 -38 V
19 29 V
19 -36 V
19 -4 V
18 -20 V
19 -14 V
19 -16 V
19 -14 V
18 -16 V
19 -15 V
19 -15 V
19 -15 V
19 -16 V
18 -15 V
stroke 5232 2389 M
19 -15 V
19 -16 V
19 -15 V
18 -15 V
19 -16 V
19 -15 V
19 -15 V
19 -16 V
18 -15 V
19 -16 V
19 -15 V
19 -15 V
18 -16 V
19 -16 V
19 -15 V
19 -16 V
19 -16 V
18 -16 V
19 -15 V
19 -16 V
19 -17 V
18 -16 V
19 -16 V
19 -17 V
19 -17 V
19 -17 V
18 -17 V
19 -18 V
19 -18 V
19 -19 V
18 -19 V
19 -19 V
19 -21 V
19 -21 V
19 -23 V
18 -24 V
19 -26 V
19 -29 V
19 -32 V
18 -38 V
19 -46 V
19 -61 V
19 -98 V
19 -443 V
18 416 V
19 84 V
19 37 V
19 101 V
18 16 V
19 2 V
19 13 V
19 14 V
19 18 V
18 26 V
19 8 V
19 0 V
19 0 V
18 0 V
19 0 V
19 0 V
19 0 V
19 0 V
18 0 V
19 -3 V
19 -2 V
19 -1 V
18 0 V
19 0 V
19 0 V
19 1 V
19 0 V
18 1 V
19 0 V
19 1 V
19 0 V
18 0 V
19 1 V
19 0 V
19 1 V
19 0 V
18 0 V
19 1 V
% End plot #4
% Begin plot #5
stroke
LTb
0.90 0.12 0.06 C LCb setrgbcolor
5966 3860 M
[ [(Helvetica) 196.0 0.0 true true 0 (10)]
[(Helvetica) 156.8 98.0 true true 0 (th)]
[(Helvetica) 196.0 0.0 true true 0 ( to 12)]
[(Helvetica) 156.8 98.0 true true 0 (th)]
[(Helvetica) 196.0 0.0 true true 0 ( FD orders)]
] -84.9 MRshow
3.000 UL
LTb
0.90 0.12 0.06 C 6083 3860 M
531 0 V
1364 1533 M
19 166 V
19 253 V
18 -156 V
19 -108 V
19 185 V
19 -121 V
18 -142 V
19 114 V
19 -264 V
19 63 V
19 506 V
18 -221 V
19 28 V
19 37 V
19 59 V
18 -423 V
19 167 V
19 -7 V
19 158 V
19 -86 V
18 264 V
19 -296 V
19 147 V
19 -167 V
18 9 V
19 -59 V
19 121 V
19 105 V
19 -278 V
18 -11 V
19 35 V
19 236 V
19 -12 V
18 86 V
19 -58 V
19 -57 V
19 -10 V
19 -952 V
18 685 V
19 244 V
19 270 V
19 -361 V
18 239 V
19 -288 V
19 142 V
19 -254 V
19 -371 V
18 527 V
19 540 V
19 127 V
19 -466 V
18 -149 V
19 70 V
19 163 V
19 -94 V
19 -213 V
18 19 V
19 262 V
19 -148 V
19 -89 V
18 41 V
19 -182 V
19 164 V
19 -285 V
19 -17 V
18 541 V
19 -367 V
19 50 V
19 9 V
18 154 V
19 67 V
19 -189 V
19 -10 V
19 -177 V
18 176 V
19 30 V
19 -91 V
19 292 V
18 -170 V
19 -143 V
19 408 V
19 -672 V
19 480 V
18 -116 V
19 119 V
19 372 V
19 -842 V
18 397 V
19 100 V
19 135 V
19 -321 V
19 -160 V
18 159 V
19 -37 V
19 -15 V
19 -140 V
18 289 V
19 9 V
19 552 V
19 -752 V
19 255 V
18 53 V
stroke 3279 1865 M
19 -342 V
19 322 V
19 -78 V
18 -82 V
19 -100 V
19 140 V
19 464 V
19 -355 V
18 -650 V
19 571 V
19 -85 V
19 527 V
18 -247 V
19 -162 V
19 235 V
19 33 V
19 -473 V
18 221 V
19 -11 V
19 -45 V
19 -2 V
19 7 V
18 138 V
19 -144 V
19 -93 V
19 51 V
18 73 V
19 -38 V
19 396 V
19 -508 V
19 -53 V
18 28 V
19 98 V
19 40 V
19 123 V
18 -365 V
19 401 V
19 27 V
19 -245 V
19 412 V
18 -302 V
19 -51 V
19 92 V
19 -278 V
18 142 V
19 -497 V
19 162 V
19 604 V
19 -237 V
18 -85 V
19 -369 V
19 897 V
19 -70 V
18 -457 V
19 242 V
19 -128 V
19 46 V
19 214 V
18 -336 V
19 35 V
19 55 V
19 -209 V
18 -84 V
19 422 V
19 -109 V
19 46 V
19 -193 V
18 404 V
19 -158 V
19 -171 V
19 -212 V
18 -179 V
19 791 V
19 -401 V
19 203 V
19 -176 V
18 -46 V
19 227 V
19 -553 V
19 304 V
18 250 V
19 -125 V
19 -23 V
19 -338 V
19 493 V
18 -15 V
19 -177 V
19 146 V
19 116 V
18 88 V
19 -166 V
19 26 V
19 182 V
19 -43 V
18 86 V
19 179 V
19 29 V
19 -42 V
18 92 V
19 -39 V
19 -23 V
19 -1 V
19 -17 V
18 -18 V
stroke 5232 2339 M
19 -14 V
19 -16 V
19 -15 V
18 -16 V
19 -15 V
19 -15 V
19 -16 V
19 -15 V
18 -16 V
19 -15 V
19 -16 V
19 -16 V
18 -16 V
19 -15 V
19 -16 V
19 -16 V
19 -16 V
18 -17 V
19 -16 V
19 -17 V
19 -17 V
18 -17 V
19 -17 V
19 -17 V
19 -18 V
19 -19 V
18 -18 V
19 -20 V
19 -20 V
19 -21 V
18 -22 V
19 -24 V
19 -25 V
19 -27 V
19 -31 V
18 -34 V
19 -42 V
19 -52 V
19 -76 V
18 -153 V
19 -6 V
19 140 V
19 65 V
19 188 V
18 -153 V
19 22 V
19 -3 V
19 134 V
18 -36 V
19 -3 V
19 4 V
19 8 V
19 10 V
18 13 V
19 4 V
19 0 V
19 0 V
18 0 V
19 0 V
19 0 V
19 0 V
19 0 V
18 0 V
19 -2 V
19 -1 V
19 -1 V
18 0 V
19 0 V
19 0 V
19 1 V
19 0 V
18 0 V
19 0 V
19 1 V
19 0 V
18 0 V
19 1 V
19 0 V
19 0 V
19 0 V
18 1 V
19 0 V
% End plot #5
stroke
2.000 UL
LTb
LCb setrgbcolor
1.000 UL
LTB
LCb setrgbcolor
839 4805 N
839 823 L
6009 0 V
0 3982 V
-6009 0 V
Z stroke
1.000 UP
1.000 UL
LTb
LCb setrgbcolor
stroke
grestore
end
showpage
%%Trailer
%%DocumentFonts: Symbol Helvetica
%%Pages: 1
